…
    Rows: 221 Columns: 5
    ── Column specification ────────────────────────────────────────────────────────
    Delimiter: ","
    chr (3): journal, DV, IV
    dbl (2): id, max.h

    ℹ Use `spec()` to retrieve the full column specification for this data.
    ℹ Specify the column types or set `show_col_types = FALSE` to quiet this message.

``` r
filedrawer
```

    # A tibble: 221 × 5
          id journal           DV                 IV     max.h
       <dbl> <chr>             <chr>              <chr>  <dbl>
     1     1 <NA>              Unwritten          Null      12
     2     2 COMMUNICATION     Published, non top Weak       9
     3     3 OTHER             Published, non top Strong    38
     4     4 OTHER             Published, non top Strong     9
     5     5 PSYCHOLOGY        Published, non top Strong     2
     6     6 COMMUNICATION     Published, non top Weak       5
     7     8 <NA>              Unpublished        Weak       4
     8    10 <NA>              Unpublished        Weak      15
     9    11 POLITICAL SCIENCE Published, top     Strong    13
    10    12 <NA>              Unwritten          Weak      31
    # ℹ 211 more rows
…
    Rows: 53 Columns: 5
    ── Column specification ────────────────────────────────────────────────────────
    Delimiter: ","
    dbl (5): id.p, cond.s, out.s, cond.p, out.p

    ℹ Use `spec()` to retrieve the full column specification for this data.
    ℹ Specify the column types or set `show_col_types = FALSE` to quiet this message.

``` r
published
```

    # A tibble: 53 × 5
        id.p cond.s out.s cond.p out.p
       <dbl>  <dbl> <dbl>  <dbl> <dbl>
     1     4      4     4      4     2
     2     8      2    20      2    20
     3    11      4     5      4     2
     4    12      3     5      3     3
     5    22      3    18      3     7
     6    24      2     7      2     2
     7    25      2    10      1     8
     8    30      3    24      3    12
     9    31      2     8      2     6
    10    33      5     9      5     9
    # ℹ 43 more rows
…
